08 - Cargar datos – Cibernética para la sustentabilidad
…
Para leer el archivo usamos una función que se llama read_csv a la cual como argumento debemos pasarle la el nombre del archivo que queremos leer (en forma de cadena):

read_csv("./pokemon.csv")

Rows: 800 Columns: 13
── Column specification ────────────────────────────────────────────────────────
Delimiter: ","
chr (3): Name, Type 1, Type 2
dbl (9): #, Total, HP, Attack, Defense, Sp. Atk, Sp. Def, Speed, Generation
lgl (1): Legendary

ℹ Use `spec()` to retrieve the full column specification for this data.
ℹ Specify the column types or set `show_col_types = FALSE` to quiet this message.

# A tibble: 800 × 13
     `#` Name   `Type 1` `Type 2` Total    HP Attack Defense `Sp. Atk` `Sp. Def`
   <dbl> <chr>  <chr>    <chr>    <dbl> <dbl>  <dbl>   <dbl>     <dbl>     <dbl>
 1     1 Bulba… Grass    Poison     318    45     49      49        65        65
 2     2 Ivysa… Grass    Poison     405    60     62      63        80        80
 3     3 Venus… Grass    Poison     525    80     82      83       100       100
 4     3 Venus… Grass    Poison     625    80    100     123       122       120
 5     4 Charm… Fire     <NA>       309    39     52      43        60        50
 6     5 Charm… Fire     <NA>       405    58     64      58        80        65
 7     6 Chari… Fire     Flying     534    78     84      78       109        85
 8     6 Chari… Fire     Dragon     634    78    130     111       130        85
 9     6 Chari… Fire     Flying     634    78    104      78       159       115
10     7 Squir… Water    <NA>       314    44     48      65        50        64
# ℹ 790 more rows
# ℹ 3 more variables: Speed <dbl>, Generation <dbl>, Legendary <lgl>
…
