11 - Agregar columnas – Cibernética para la sustentabilidad
…
pobreza_poblacion: el número de habitantes en alguna condición de pobreza en el municipio

pobreza_extrema_poblacion: el número de habitantes en condición de pobreza extrema en el municipio

periodo: la fecha a la cual corresponden los datos

Exploración inicial de los datos

Podemos iniciar explorando los datos con las funciones que ya conocemos, por ejemplo, podemos quedarnos solo con los datos de 2020 usando la función filter:

pobreza_2020 <- filter(pobreza, periodo == '2020-01-01')
pobreza_2020

# A tibble: 2,469 × 6
   entidad_federativa municipio           poblacion pobreza_poblacion
   <chr>              <chr>                   <dbl>             <dbl>
 1 Aguascalientes     Aguascalientes         922268            218414
 2 Aguascalientes     Asientos                48635             19518
 3 Aguascalientes     Calvillo                52377             23966
 4 Aguascalientes     Cosío                   15942              5905
 5 Aguascalientes     Jesús María            127962             33708
 6 Aguascalientes     Pabellón de Arteaga     45100             13042
 7 Aguascalientes     Rincón de Romos         53844             21813
 8 Aguascalientes     San José de Gracia       9201              4211
 9 Aguascalientes     Tepezalá                20898              7868
10 Aguascalientes     El Llano                20182              8196
# ℹ 2,459 more rows
# ℹ 2 more variables: pobreza_extrema_poblacion <dbl>, periodo <date>
Una buena práctica para saber si estamos manejando bien nuestros datos es hacer algunas validaciones rápidas verificando que la información sea consistente con información que conocemos. Por ejemplo, podemos revisar cuanto suma la población de México y ver si corresponde aproximadamente a lo que sabemos (~128 millones).

sum(pull(pobreza_2020, poblacion), na.rm = TRUE)

[1] 127409241

Esto nos arroja un valor aproximado de 127 millones que corresponde bien con lo que sabemos de la población de México. Esto es una señal de que estamos manejando e interpretando bien nuestros datos.

Ahora podemos ordenar los municipios de acuerdo a la cantidad de pobladores en condición de pobreza.

Pregunta ¿Qué municipios crees que sean los que tienen más población en condición de pobreza?

arrange(pobreza_2020, desc(pobreza_poblacion))

# A tibble: 2,469 × 6
   entidad_federativa municipio           poblacion pobreza_poblacion
   <chr>              <chr>                   <dbl>             <dbl>
 1 Guanajuato         León                  1780345            816934
 2 México             Ecatepec de Morelos   1808026            786391
 3 Ciudad de México   Iztapalapa            1760382            772584
 4 Puebla             Puebla                1643842            680945
 5 México             Nezahualcóyotl        1126331            523289
 6 México             Toluca                 986405            511347
 7 México             Chimalhuacán           716859            493687
 8 Baja California    Tijuana               1913345            453508
 9 Guerrero           Acapulco de Juárez     757367            394861
10 Jalisco            Zapopan               1458652            387944
# ℹ 2,459 more rows
# ℹ 2 more variables: pobreza_extrema_poblacion <dbl>, periodo <date>

Ahora veamos cuales son los municipios con menor población en condición de pobreza:

arrange(pobreza_2020, pobreza_poblacion)

# A tibble: 2,469 × 6
   entidad_federativa   municipio                poblacion pobreza_poblacion
   <chr>                <chr>                        <dbl>             <dbl>
 1 Oaxaca               Santa Magdalena Jicotlán        81                55
 2 Nuevo León           Parás                          855                63
 3 Sonora               San Felipe de Jesús            393                66
 4 Oaxaca               Santo Domingo Tlatayápam       113                88
 5 Sonora               Ónavas                         389                96
 6 Sonora               Huépac                        1004                98
 7 Oaxaca               Santiago Tepetlapa             130               101
 8 Coahuila de Zaragoza Abasolo                       1019               112
 9 Sonora               Oquitoa                        528               125
10 Nuevo León           Higueras                      1308               131
# ℹ 2,459 more rows
# ℹ 2 more variables: pobreza_extrema_poblacion <dbl>, periodo <date>

Pregunta ¿Por qué crees que los datos muestran que la pobreza se concentra municipios del Estado de México y Ciudad de México?

Nota como ahorita el dato que estamos analizando es el número total de habitantes en condición de pobreza. La distribución de la población en México es sumamente heterogénea. Tenemos municipios con una gran cantidad de pobladores y otros con muy poca población. Eso significa que aunque un municipio sea muy pobre si este solo tiene 10 habitantes y todos viven en pobreza, aunque sea un municipio muy pobre, este quedará muy debajo en nuestra tabla de datos ordenados.

Si ordenamos los municipios por población total podemos ver cómo varios de los municipios que figuraban entre los más pobres son también los que más habitantes tienen:

arrange(pobreza_2020, desc(poblacion))

# A tibble: 2,469 × 6
   entidad_federativa municipio           poblacion pobreza_poblacion
   <chr>              <chr>                   <dbl>             <dbl>
 1 Baja California    Tijuana               1913345            453508
 2 México             Ecatepec de Morelos   1808026            786391
 3 Guanajuato         León                  1780345            816934
 4 Ciudad de México   Iztapalapa            1760382            772584
 5 Puebla             Puebla                1643842            680945
 6 Chihuahua          Juárez                1600083            379290
 7 Jalisco            Zapopan               1458652            387944
 8 Jalisco            Guadalajara           1356167            336622
 9 Ciudad de México   Gustavo A. Madero     1130265            381752
10 México             Nezahualcóyotl        1126331            523289
# ℹ 2,459 more rows
# ℹ 2 more variables: pobreza_extrema_poblacion <dbl>, periodo <date>

Pregunta ¿Qué información nos serviría más para capturar la amplitud de la pobreza en un municipio?

Un dato que reflejaría mejor la cantidad de la pobreza en una región sería el porcentaje de población en pobreza. Veamos algunas funciones que nos permitirán obtener nuevos valores a partir de las columnas existentes.

Función mutate

La función mutate nos permite agregar nuevas columnas a una tabla de datos, por ejemplo:

mutate(pobreza, titulo_columna = "valor")

# A tibble: 7,382 × 7
   entidad_federativa municipio           poblacion pobreza_poblacion
   <chr>              <chr>                   <dbl>             <dbl>
 1 Aguascalientes     Aguascalientes         922268            218414
 2 Aguascalientes     Asientos                48635             19518
 3 Aguascalientes     Calvillo                52377             23966
 4 Aguascalientes     Cosío                   15942              5905
 5 Aguascalientes     Jesús María            127962             33708
 6 Aguascalientes     Pabellón de Arteaga     45100             13042
 7 Aguascalientes     Rincón de Romos         53844             21813
 8 Aguascalientes     San José de Gracia       9201              4211
 9 Aguascalientes     Tepezalá                20898              7868
10 Aguascalientes     El Llano                20182              8196
# ℹ 7,372 more rows
# ℹ 3 more variables: pobreza_extrema_poblacion <dbl>, periodo <date>,
#   titulo_columna <chr>
…
Rows: 7,382
Columns: 7
$ entidad_federativa        <chr> "Aguascalientes", "Aguascalientes", "Aguasca…
$ municipio                 <chr> "Aguascalientes", "Asientos", "Calvillo", "C…
$ poblacion                 <dbl> 922268, 48635, 52377, 15942, 127962, 45100, …
$ pobreza_poblacion         <dbl> 218414, 19518, 23966, 5905, 33708, 13042, 21…
$ pobreza_extrema_poblacion <dbl> 18206, 2015, 2356, 538, 4204, 1297, 2995, 21…
$ periodo                   <date> 2020-01-01, 2020-01-01, 2020-01-01, 2020-01…
$ titulo_columna            <chr> "valor", "valor", "valor", "valor", "valor",…

También podemos controlar la posición donde se crea nuestra nueva columna con el argumento .after o .before, al cual le pasamos el nombre de la columna después de la cual queremos agregar la columna:

mutate(pobreza, titulo_columna = "valor", .after = municipio)

# A tibble: 7,382 × 7
   entidad_federativa municipio       titulo_columna poblacion pobreza_poblacion
   <chr>              <chr>           <chr>              <dbl>             <dbl>
 1 Aguascalientes     Aguascalientes  valor             922268            218414
 2 Aguascalientes     Asientos        valor              48635             19518
 3 Aguascalientes     Calvillo        valor              52377             23966
 4 Aguascalientes     Cosío           valor              15942              5905
 5 Aguascalientes     Jesús María     valor             127962             33708
 6 Aguascalientes     Pabellón de Ar… valor              45100             13042
 7 Aguascalientes     Rincón de Romos valor              53844             21813
 8 Aguascalientes     San José de Gr… valor               9201              4211
 9 Aguascalientes     Tepezalá        valor              20898              7868
10 Aguascalientes     El Llano        valor              20182              8196
# ℹ 7,372 more rows
# ℹ 2 more variables: pobreza_extrema_poblacion <dbl>, periodo <date>

La función mutate nos permite agregar columnas usando los valores de otras columnas, para hacer referencia a los valores de otras columnas simplemente usamos el nombre de la columna.

Pregunta ¿Qué cálculos debemos hacer para calcular el porcentaje de pobreza en los municipios?

Lo que debemos hacer es dividir el número de habitantes en condición de pobreza entre el número total de habitantes y multiplicarlo por 100:

mutate(pobreza_2020, 
       pobreza_porcentaje = pobreza_poblacion / poblacion * 100, 
       .after = pobreza_poblacion)

# A tibble: 2,469 × 7
   entidad_federativa municipio   poblacion pobreza_poblacion pobreza_porcentaje
   <chr>              <chr>           <dbl>             <dbl>              <dbl>
 1 Aguascalientes     Aguascalie…    922268            218414               23.7
 2 Aguascalientes     Asientos        48635             19518               40.1
 3 Aguascalientes     Calvillo        52377             23966               45.8
 4 Aguascalientes     Cosío           15942              5905               37.0
 5 Aguascalientes     Jesús María    127962             33708               26.3
 6 Aguascalientes     Pabellón d…     45100             13042               28.9
 7 Aguascalientes     Rincón de …     53844             21813               40.5
 8 Aguascalientes     San José d…      9201              4211               45.8
 9 Aguascalientes     Tepezalá        20898              7868               37.6
10 Aguascalientes     El Llano        20182              8196               40.6
# ℹ 2,459 more rows
# ℹ 2 more variables: pobreza_extrema_poblacion <dbl>, periodo <date>

Podemos agregar varias columnas a la vez. Por ejemplo, agregar una columna con el porcentaje de la población del municipio:

mutate(pobreza_2020, 
       pobreza_porcentaje = pobreza_poblacion / poblacion * 100,
       poblacion_porcentaje = poblacion / sum(poblacion) * 100,
       .after = pobreza_poblacion)

# A tibble: 2,469 × 8
   entidad_federativa municipio   poblacion pobreza_poblacion pobreza_porcentaje
   <chr>              <chr>           <dbl>             <dbl>              <dbl>
 1 Aguascalientes     Aguascalie…    922268            218414               23.7
 2 Aguascalientes     Asientos        48635             19518               40.1
 3 Aguascalientes     Calvillo        52377             23966               45.8
 4 Aguascalientes     Cosío           15942              5905               37.0
 5 Aguascalientes     Jesús María    127962             33708               26.3
 6 Aguascalientes     Pabellón d…     45100             13042               28.9
 7 Aguascalientes     Rincón de …     53844             21813               40.5
 8 Aguascalientes     San José d…      9201              4211               45.8
 9 Aguascalientes     Tepezalá        20898              7868               37.6
10 Aguascalientes     El Llano        20182              8196               40.6
# ℹ 2,459 more rows
# ℹ 3 more variables: poblacion_porcentaje <dbl>,
#   pobreza_extrema_poblacion <dbl>, periodo <date>

Nota cómo en la columna poblacion_porcentaje obtenemos puros valores NA, esto es porque cuando usamos funciones como sum o mean y tenemos al menos un valor con NA este se “expande” y evita que hagamos operaciones. Para ignorar los valores NA debemos usar el argumento na.rm = TRUE:

mutate(pobreza_2020, 
       pobreza_porcentaje = pobreza_poblacion / poblacion * 100,
       poblacion_porcentaje = poblacion / sum(poblacion, na.rm = TRUE) * 100,
       .after = pobreza_poblacion)

# A tibble: 2,469 × 8
   entidad_federativa municipio   poblacion pobreza_poblacion pobreza_porcentaje
   <chr>              <chr>           <dbl>             <dbl>              <dbl>
 1 Aguascalientes     Aguascalie…    922268            218414               23.7
 2 Aguascalientes     Asientos        48635             19518               40.1
 3 Aguascalientes     Calvillo        52377             23966               45.8
 4 Aguascalientes     Cosío           15942              5905               37.0
 5 Aguascalientes     Jesús María    127962             33708               26.3
 6 Aguascalientes     Pabellón d…     45100             13042               28.9
 7 Aguascalientes     Rincón de …     53844             21813               40.5
 8 Aguascalientes     San José d…      9201              4211               45.8
 9 Aguascalientes     Tepezalá        20898              7868               37.6
10 Aguascalientes     El Llano        20182              8196               40.6
# ℹ 2,459 more rows
# ℹ 3 more variables: poblacion_porcentaje <dbl>,
#   pobreza_extrema_poblacion <dbl>, periodo <date>

Recordemos que si no guardamos nuestra tabla modificada en una variable (o si no sobrescribimos la variables), los resultados no se guardan:

pobreza_2020

# A tibble: 2,469 × 6
   entidad_federativa municipio           poblacion pobreza_poblacion
   <chr>              <chr>                   <dbl>             <dbl>
 1 Aguascalientes     Aguascalientes         922268            218414
 2 Aguascalientes     Asientos                48635             19518
 3 Aguascalientes     Calvillo                52377             23966
 4 Aguascalientes     Cosío                   15942              5905
 5 Aguascalientes     Jesús María            127962             33708
 6 Aguascalientes     Pabellón de Arteaga     45100             13042
 7 Aguascalientes     Rincón de Romos         53844             21813
 8 Aguascalientes     San José de Gracia       9201              4211
 9 Aguascalientes     Tepezalá                20898              7868
10 Aguascalientes     El Llano                20182              8196
# ℹ 2,459 more rows
# ℹ 2 more variables: pobreza_extrema_poblacion <dbl>, periodo <date>

Así que debemos asignarlos a una variable explícitamente:

pobreza_2020 <- mutate(pobreza_2020, 
       pobreza_porcentaje = pobreza_poblacion / poblacion * 100,
       poblacion_porcentaje = poblacion / sum(poblacion, na.rm = TRUE) * 100,
       .after = pobreza_poblacion)

Explorar de nuevo nuestros datos

Ahora podemos ordenar de nuevo nuestros datos de acuerdo al porcentaje en condición de pobreza:

arrange(pobreza_2020, desc(pobreza_porcentaje))

# A tibble: 2,469 × 8
   entidad_federativa municipio   poblacion pobreza_poblacion pobreza_porcentaje
   <chr>              <chr>           <dbl>             <dbl>              <dbl>
 1 Oaxaca             San Simón …      4942              4925               99.7
 2 Guerrero           Cochoapa e…     21967             21844               99.4
 3 Oaxaca             San Franci…       312               310               99.4
 4 Oaxaca             Coicoyán d…      9567              9500               99.3
 5 Chiapas            San Juan C…     38321             38036               99.3
 6 Chiapas            Chanal          13813             13690               99.1
 7 Oaxaca             San Lucas …      3188              3156               99.0
 8 Chiapas            Aldama           8563              8473               98.9
 9 Chiapas            Chalchihui…     22131             21881               98.9
10 Oaxaca             San Miguel…      3142              3104               98.8
# ℹ 2,459 more rows
# ℹ 3 more variables: poblacion_porcentaje <dbl>,
#   pobreza_extrema_poblacion <dbl>, periodo <date>

Y también podemos ver los municipios con menor porcentaje de población en pobreza:

arrange(pobreza_2020, pobreza_porcentaje)

# A tibble: 2,469 × 8
   entidad_federativa municipio   poblacion pobreza_poblacion pobreza_porcentaje
   <chr>              <chr>           <dbl>             <dbl>              <dbl>
 1 Nuevo León         San Pedro …    118113              6438               5.45
 2 Nuevo León         Parás             855                63               7.37
 3 Ciudad de México   Benito Juá…    373752             29466               7.88
 4 Nuevo León         Agualeguas       3193               278               8.71
 5 Sonora             Huépac           1004                98               9.76
 6 Nuevo León         Marín            4832               475               9.83
 7 Chihuahua          Riva Palac…      8004               790               9.87
 8 Nuevo León         Higueras         1308               131              10.0 
 9 Nuevo León         Melchor Oc…      1400               141              10.1 
10 Nuevo León         Abasolo          2807               291              10.4 
# ℹ 2,459 more rows
# ℹ 3 more variables: poblacion_porcentaje <dbl>,
#   pobreza_extrema_poblacion <dbl>, periodo <date>
…
