12 - Resumir datos – Cibernética para la sustentabilidad
…
ℹ Use `spec()` to retrieve the full column specification for this data.
ℹ Specify the column types or set `show_col_types = FALSE` to quiet this message.

pobreza_2020 <- filter(pobreza, periodo == '2020-01-01')

pobreza_2020 <- mutate(
  pobreza_2020, 
  pobreza_porcentaje = pobreza_poblacion / poblacion * 100, 
  .after = pobreza_poblacion
  )

pobreza_2020

# A tibble: 2,469 × 7
   entidad_federativa municipio   poblacion pobreza_poblacion pobreza_porcentaje
   <chr>              <chr>           <dbl>             <dbl>              <dbl>
 1 Aguascalientes     Aguascalie…    922268            218414               23.7
 2 Aguascalientes     Asientos        48635             19518               40.1
 3 Aguascalientes     Calvillo        52377             23966               45.8
 4 Aguascalientes     Cosío           15942              5905               37.0
 5 Aguascalientes     Jesús María    127962             33708               26.3
 6 Aguascalientes     Pabellón d…     45100             13042               28.9
 7 Aguascalientes     Rincón de …     53844             21813               40.5
 8 Aguascalientes     San José d…      9201              4211               45.8
 9 Aguascalientes     Tepezalá        20898              7868               37.6
10 Aguascalientes     El Llano        20182              8196               40.6
# ℹ 2,459 more rows
# ℹ 2 more variables: pobreza_extrema_poblacion <dbl>, periodo <date>
…
Resúmenes con datos agrupados

summarise nos puede dar resúmenes muy útiles, sin embargo, algo más útil sería obtener resúmenes agrupando los datos. Por ejemplo, si quisiéramos saber cuál es el porcentaje de población en condición de pobreza en cada estado necesitamos la información de la población en pobreza total de un estado, y la población total del estado. Para sumar sólo la información de un estado podríamos usar la función filter, sin embargo como tenemos 32 estados tendríamos que aplicarla 32 veces… que flojera. Para eso es que tenemos la función group_by

La función group_by nos permite hacer operaciones agrupando los datos por un criterio. Por ejemplo, si queremos agrupar los datos por estado podemos hacer lo siguiente:

pobreza_2020_agrupado_por_entidad <- group_by(pobreza_2020, entidad_federativa)
pobreza_2020_agrupado_por_entidad

# A tibble: 2,469 × 7
# Groups:   entidad_federativa [32]
   entidad_federativa municipio   poblacion pobreza_poblacion pobreza_porcentaje
   <chr>              <chr>           <dbl>             <dbl>              <dbl>
 1 Aguascalientes     Aguascalie…    922268            218414               23.7
 2 Aguascalientes     Asientos        48635             19518               40.1
 3 Aguascalientes     Calvillo        52377             23966               45.8
 4 Aguascalientes     Cosío           15942              5905               37.0
 5 Aguascalientes     Jesús María    127962             33708               26.3
 6 Aguascalientes     Pabellón d…     45100             13042               28.9
 7 Aguascalientes     Rincón de …     53844             21813               40.5
 8 Aguascalientes     San José d…      9201              4211               45.8
 9 Aguascalientes     Tepezalá        20898              7868               37.6
10 Aguascalientes     El Llano        20182              8196               40.6
# ℹ 2,459 more rows
# ℹ 2 more variables: pobreza_extrema_poblacion <dbl>, periodo <date>

Nota como parece que no les pasó nada a los datos. La función group_by por si sola no afecta en nada a los datos, solamente le indica a las funciones que usemos posteriormente que deben realizar las operaciones agrupando a los datos por un criterio. Nota como hasta arriba de donde se imprime la tabla hay una leyenda que dice Groups: entidad_federativa.

Veamos que pasa si ahora repetimos el mismo resumen de arriba pero con los datos agrupados:

summarise(
  pobreza_2020_agrupado_por_entidad,
  pob_total = sum(poblacion, na.rm = TRUE),
  pob_pobreza_total = sum(pobreza_poblacion, na.rm = TRUE),
  media_porcentaje_pobreza = mean(pobreza_porcentaje, na.rm = TRUE),
  max_porcentaje_pobreza = max(pobreza_porcentaje, na.rm = TRUE),
  min_porcentaje_pobreza = min(pobreza_porcentaje, na.rm = TRUE)
)

# A tibble: 32 × 6
   entidad_federativa   pob_total pob_pobreza_total media_porcentaje_pobreza
   <chr>                    <dbl>             <dbl>                    <dbl>
 1 Aguascalientes         1373242            378118                     36.7
 2 Baja California        3742465            865158                     25.6
 3 Baja California Sur     885465            242190                     29.1
 4 Campeche                978797            475080                     61.3
 5 Chiapas                5586615           4158384                     80.5
 6 Chihuahua              3892117            992479                     35.8
 7 Ciudad de México       8721320           2981770                     32.8
 8 Coahuila de Zaragoza   3139003            740180                     26.2
 9 Colima                  786016            218604                     33.5
10 Durango                1852264            696309                     50.7
# ℹ 22 more rows
# ℹ 2 more variables: max_porcentaje_pobreza <dbl>,
#   min_porcentaje_pobreza <dbl>
…
Los resultados que arroja la función summarise son una nueva tabla que podemos guardar en una variable:

pobreza_2020_entidades <- summarise(
  pobreza_2020_agrupado_por_entidad,
  pob_total = sum(poblacion, na.rm = TRUE),
  pob_pobreza_total = sum(pobreza_poblacion, na.rm = TRUE),
  media_porcentaje_pobreza = mean(pobreza_porcentaje, na.rm = TRUE),
  max_porcentaje_pobreza = max(pobreza_porcentaje, na.rm = TRUE),
  min_porcentaje_pobreza = min(pobreza_porcentaje, na.rm = TRUE)
)

pobreza_2020_entidades

# A tibble: 32 × 6
   entidad_federativa   pob_total pob_pobreza_total media_porcentaje_pobreza
   <chr>                    <dbl>             <dbl>                    <dbl>
 1 Aguascalientes         1373242            378118                     36.7
 2 Baja California        3742465            865158                     25.6
 3 Baja California Sur     885465            242190                     29.1
 4 Campeche                978797            475080                     61.3
 5 Chiapas                5586615           4158384                     80.5
 6 Chihuahua              3892117            992479                     35.8
 7 Ciudad de México       8721320           2981770                     32.8
 8 Coahuila de Zaragoza   3139003            740180                     26.2
 9 Colima                  786016            218604                     33.5
10 Durango                1852264            696309                     50.7
# ℹ 22 more rows
# ℹ 2 more variables: max_porcentaje_pobreza <dbl>,
#   min_porcentaje_pobreza <dbl>

Y esta tabla la podemos manipular como a cualquier tabla. Por ejemplo, podemos agregarle una columna con el porcentaje de población en pobreza en el estado:

pobreza_2020_entidades <- mutate(
  pobreza_2020_entidades,
  pob_pobreza_porcentaje = pob_pobreza_total / pob_total * 100,
  .after = pob_pobreza_total
)

pobreza_2020_entidades

# A tibble: 32 × 7
   entidad_federativa   pob_total pob_pobreza_total pob_pobreza_porcentaje
   <chr>                    <dbl>             <dbl>                  <dbl>
 1 Aguascalientes         1373242            378118                   27.5
 2 Baja California        3742465            865158                   23.1
 3 Baja California Sur     885465            242190                   27.4
 4 Campeche                978797            475080                   48.5
 5 Chiapas                5586615           4158384                   74.4
 6 Chihuahua              3892117            992479                   25.5
 7 Ciudad de México       8721320           2981770                   34.2
 8 Coahuila de Zaragoza   3139003            740180                   23.6
 9 Colima                  786016            218604                   27.8
10 Durango                1852264            696309                   37.6
# ℹ 22 more rows
# ℹ 3 more variables: media_porcentaje_pobreza <dbl>,
#   max_porcentaje_pobreza <dbl>, min_porcentaje_pobreza <dbl>
…
Una función muy útil para usar con datos agrupados es la función n(). Esta lo único que hace es contar el número de elementos de cada grupo. Por ejemplo para saber cuántos municipios hay en cada entidad podemos hacer lo siguiente:

pobreza_2020_agrupado_por_entidad <- group_by(pobreza_2020, entidad_federativa)
summarise(
    pobreza_2020_agrupado_por_entidad, 
    num_municipios = n()
)

# A tibble: 32 × 2
   entidad_federativa   num_municipios
   <chr>                         <int>
 1 Aguascalientes                   11
 2 Baja California                   6
 3 Baja California Sur               5
 4 Campeche                         12
 5 Chiapas                         124
 6 Chihuahua                        67
 7 Ciudad de México                 16
 8 Coahuila de Zaragoza             38
 9 Colima                           10
10 Durango                          39
# ℹ 22 more rows
…
La función group_by nos permite agrupar por más de un solo valor. Por ejemplo, podemos hacer los mismos cálculos pero agrupando los valores de la tabla pobreza por entidad y periodo, para así tener los cálculos para cada entidad en diferentes años:

pobreza_agrupado_por_entidad_y_periodo <- group_by(pobreza, entidad_federativa, periodo)

summarise(
  pobreza_agrupado_por_entidad_y_periodo,
  pob_total = sum(poblacion, na.rm = TRUE),
  pob_pobreza_total = sum(pobreza_poblacion, na.rm = TRUE)
)

`summarise()` has grouped output by 'entidad_federativa'. You can override
using the `.groups` argument.

# A tibble: 96 × 4
# Groups:   entidad_federativa [36]
   entidad_federativa  periodo    pob_total pob_pobreza_total
   <chr>               <date>         <dbl>             <dbl>
 1 Aguascalientes      2010-01-01   1198083            456838
 2 Aguascalientes      2015-01-01   1292901            400355
 3 Aguascalientes      2020-01-01   1373242            378118
 4 Baja California     2010-01-01   3235371           1019795
 5 Baja California     2015-01-01   3499474           1021966
 6 Baja California     2020-01-01   3742465            865158
 7 Baja California Sur 2010-01-01    654837            202965
 8 Baja California Sur 2015-01-01    770210            215109
 9 Baja California Sur 2020-01-01    885465            242190
10 Campeche            2010-01-01    842088            425296
# ℹ 86 more rows
…
