13 - Escribir con pipes – Cibernética para la sustentabilidad
…
resultado <- f(x,y)
g(resultado, z)

o sin crear variables intermedias:

g(f(x, y), z)

Es decir, el resultado de la función f es pasado como primer argumento a la función g.

Por ejemplo, si tenemos el siguiente código:

pobreza_jalisco <- filter(pobreza, entidad_federativa == "Jalisco")
arrange(pobreza_jalisco, poblacion)

# A tibble: 375 × 6
   entidad_federativa municipio           poblacion pobreza_poblacion
   <chr>              <chr>                   <dbl>             <dbl>
 1 Jalisco            Santa María del Oro      1823              1008
 2 Jalisco            Ejutla                   1890               657
 3 Jalisco            Ejutla                   1990               482
 4 Jalisco            Ejutla                   2032               848
 5 Jalisco            Santa María del Oro      2058              1317
 6 Jalisco            Cuautla                  2151               752
 7 Jalisco            Cuautla                  2154              1251
 8 Jalisco            Cuautla                  2176               739
 9 Jalisco            Santa María del Oro      2517              1860
10 Jalisco            Guachinango              2885              1628
# ℹ 365 more rows
# ℹ 2 more variables: pobreza_extrema_poblacion <dbl>, periodo <date>

Que sin objetos intermedios sería equivalente a:

arrange(filter(pobreza, entidad_federativa == "Jalisco"), poblacion)

# A tibble: 375 × 6
   entidad_federativa municipio           poblacion pobreza_poblacion
   <chr>              <chr>                   <dbl>             <dbl>
 1 Jalisco            Santa María del Oro      1823              1008
 2 Jalisco            Ejutla                   1890               657
 3 Jalisco            Ejutla                   1990               482
 4 Jalisco            Ejutla                   2032               848
 5 Jalisco            Santa María del Oro      2058              1317
 6 Jalisco            Cuautla                  2151               752
 7 Jalisco            Cuautla                  2154              1251
 8 Jalisco            Cuautla                  2176               739
 9 Jalisco            Santa María del Oro      2517              1860
10 Jalisco            Guachinango              2885              1628
# ℹ 365 more rows
# ℹ 2 more variables: pobreza_extrema_poblacion <dbl>, periodo <date>

Con el pipe la podemos reescribir de la siguiente manera:

pobreza |>
  filter(entidad_federativa == "Jalisco") |>
  arrange(poblacion)

# A tibble: 375 × 6
   entidad_federativa municipio           poblacion pobreza_poblacion
   <chr>              <chr>                   <dbl>             <dbl>
 1 Jalisco            Santa María del Oro      1823              1008
 2 Jalisco            Ejutla                   1890               657
 3 Jalisco            Ejutla                   1990               482
 4 Jalisco            Ejutla                   2032               848
 5 Jalisco            Santa María del Oro      2058              1317
 6 Jalisco            Cuautla                  2151               752
 7 Jalisco            Cuautla                  2154              1251
 8 Jalisco            Cuautla                  2176               739
 9 Jalisco            Santa María del Oro      2517              1860
10 Jalisco            Guachinango              2885              1628
# ℹ 365 more rows
# ℹ 2 more variables: pobreza_extrema_poblacion <dbl>, periodo <date>
…
[1] 127409241

# Reescribe aquí el código

Ejercicio 2

Describe con tus propias palabras qué hace el siguiente código. ¿Qué datos incluye el resultado?

pobreza |>
  filter(entidad_federativa == "Chiapas") |>
  group_by(municipio) |>
  summarise(promedio_pob_pobreza = mean(pobreza_poblacion, na.rm = TRUE))

# A tibble: 124 × 2
   municipio                 promedio_pob_pobreza
   <chr>                                    <dbl>
 1 Acacoyagua                              16514.
 2 Acala                                   23020.
 3 Acapetahua                              24300 
 4 Aldama                                   6643.
 5 Altamirano                              28898.
 6 Amatenango de la Frontera               23978.
 7 Amatenango del Valle                     9462 
 8 Amatán                                  20610.
 9 Angel Albino Corzo                      24053.
10 Arriaga                                 31219.
# ℹ 114 more rows
…
pobreza_2020 <- filter(pobreza, periodo == '2020-01-01')
pobreza_2020_agrupado_por_entidad <- group_by(pobreza_2020, entidad_federativa)
resumen_pobreza_2020_entidad <- summarise(
  pobreza_2020_agrupado_por_entidad,
  pob_total = sum(poblacion, na.rm = TRUE),
  pob_pobreza = sum(pobreza_poblacion, na.rm = TRUE)
)
resumen_pobreza_2020_entidad <- mutate(
  resumen_pobreza_2020_entidad,
  porcentaje_pobreza = pob_pobreza / pob_total * 100
)

arrange(resumen_pobreza_2020_entidad, porcentaje_pobreza)

# A tibble: 32 × 4
   entidad_federativa   pob_total pob_pobreza porcentaje_pobreza
   <chr>                    <dbl>       <dbl>              <dbl>
 1 Nuevo León             5460396     1075563               19.7
 2 Baja California        3742465      865158               23.1
 3 Coahuila de Zaragoza   3139003      740180               23.6
 4 Chihuahua              3892117      992479               25.5
 5 Baja California Sur     885465      242190               27.4
 6 Aguascalientes         1373242      378118               27.5
 7 Colima                  786016      218604               27.8
 8 Sinaloa                3111958      879250               28.3
 9 Nayarit                1340427      409311               30.5
10 Sonora                 3136574      978307               31.2
# ℹ 22 more rows
…
