01 - Notebooks – Cibernética para la sustentabilidad
…
Ahora veamos cuales fueron en el ciclo 2023-2024 las carreras más estudiadas en México:

licenciatura |>
  group_by(nombre_programa_educativo) |>
  summarise(
    matricula_total = sum(matricula)
  ) |>
  arrange(desc(matricula_total)) |>
  print(n = 10)

# A tibble: 4,109 × 2
   nombre_programa_educativo                  matricula_total
   <chr>                                                <dbl>
 1 LICENCIATURA EN DERECHO                             343437
 2 LICENCIATURA EN PSICOLOGÍA                          181666
 3 LICENCIATURA EN ENFERMERÍA                          159386
 4 LICENCIATURA EN PEDAGOGÍA                           133682
 5 INGENIERÍA INDUSTRIAL                               129714
 6 LICENCIATURA EN ADMINISTRACIÓN                      124907
 7 LICENCIATURA EN ADMINISTRACIÓN DE EMPRESAS           97959
 8 INGENIERÍA EN SISTEMAS COMPUTACIONALES               83326
 9 LICENCIATURA EN ARQUITECTURA                         80846
10 INGENIERÍA EN GESTIÓN EMPRESARIAL                    72059
# ℹ 4,099 more rows
…
