09 - Renombrar columnas – Cibernética para la sustentabilidad
…
pokemon <- read_csv("./pokemon.csv")

Rows: 800 Columns: 13
── Column specification ────────────────────────────────────────────────────────
Delimiter: ","
chr (3): Name, Type 1, Type 2
dbl (9): #, Total, HP, Attack, Defense, Sp. Atk, Sp. Def, Speed, Generation
lgl (1): Legendary

ℹ Use `spec()` to retrieve the full column specification for this data.
ℹ Specify the column types or set `show_col_types = FALSE` to quiet this message.

pokemon

# A tibble: 800 × 13
     `#` Name   `Type 1` `Type 2` Total    HP Attack Defense `Sp. Atk` `Sp. Def`
   <dbl> <chr>  <chr>    <chr>    <dbl> <dbl>  <dbl>   <dbl>     <dbl>     <dbl>
 1     1 Bulba… Grass    Poison     318    45     49      49        65        65
 2     2 Ivysa… Grass    Poison     405    60     62      63        80        80
 3     3 Venus… Grass    Poison     525    80     82      83       100       100
 4     3 Venus… Grass    Poison     625    80    100     123       122       120
 5     4 Charm… Fire     <NA>       309    39     52      43        60        50
 6     5 Charm… Fire     <NA>       405    58     64      58        80        65
 7     6 Chari… Fire     Flying     534    78     84      78       109        85
 8     6 Chari… Fire     Dragon     634    78    130     111       130        85
 9     6 Chari… Fire     Flying     634    78    104      78       159       115
10     7 Squir… Water    <NA>       314    44     48      65        50        64
# ℹ 790 more rows
# ℹ 3 more variables: Speed <dbl>, Generation <dbl>, Legendary <lgl>

Renombrar columnas

Para renombrar las columnas de una tabla de datos usamos la función rename, por ejemplo, si queremos renombrar la columna Name a nombre hacemos lo siguiente:

rename(pokemon, nombre = Name)

# A tibble: 800 × 13
     `#` nombre `Type 1` `Type 2` Total    HP Attack Defense `Sp. Atk` `Sp. Def`
   <dbl> <chr>  <chr>    <chr>    <dbl> <dbl>  <dbl>   <dbl>     <dbl>     <dbl>
 1     1 Bulba… Grass    Poison     318    45     49      49        65        65
 2     2 Ivysa… Grass    Poison     405    60     62      63        80        80
 3     3 Venus… Grass    Poison     525    80     82      83       100       100
 4     3 Venus… Grass    Poison     625    80    100     123       122       120
 5     4 Charm… Fire     <NA>       309    39     52      43        60        50
 6     5 Charm… Fire     <NA>       405    58     64      58        80        65
 7     6 Chari… Fire     Flying     534    78     84      78       109        85
 8     6 Chari… Fire     Dragon     634    78    130     111       130        85
 9     6 Chari… Fire     Flying     634    78    104      78       159       115
10     7 Squir… Water    <NA>       314    44     48      65        50        64
# ℹ 790 more rows
# ℹ 3 more variables: Speed <dbl>, Generation <dbl>, Legendary <lgl>

Sin embargo, nota que si no guardamos nuestra nueva tabla renombrada nuestra tabla se queda igual:

pokemon

# A tibble: 800 × 13
     `#` Name   `Type 1` `Type 2` Total    HP Attack Defense `Sp. Atk` `Sp. Def`
   <dbl> <chr>  <chr>    <chr>    <dbl> <dbl>  <dbl>   <dbl>     <dbl>     <dbl>
 1     1 Bulba… Grass    Poison     318    45     49      49        65        65
 2     2 Ivysa… Grass    Poison     405    60     62      63        80        80
 3     3 Venus… Grass    Poison     525    80     82      83       100       100
 4     3 Venus… Grass    Poison     625    80    100     123       122       120
 5     4 Charm… Fire     <NA>       309    39     52      43        60        50
 6     5 Charm… Fire     <NA>       405    58     64      58        80        65
 7     6 Chari… Fire     Flying     534    78     84      78       109        85
 8     6 Chari… Fire     Dragon     634    78    130     111       130        85
 9     6 Chari… Fire     Flying     634    78    104      78       159       115
10     7 Squir… Water    <NA>       314    44     48      65        50        64
# ℹ 790 more rows
# ℹ 3 more variables: Speed <dbl>, Generation <dbl>, Legendary <lgl>

Para que los cambios se queden guardados hay que crear una nueva variable o sobreescribir el valor de la variable que ya teníamos:

pokemon <- rename(pokemon, nombre = Name)
pokemon

# A tibble: 800 × 13
     `#` nombre `Type 1` `Type 2` Total    HP Attack Defense `Sp. Atk` `Sp. Def`
   <dbl> <chr>  <chr>    <chr>    <dbl> <dbl>  <dbl>   <dbl>     <dbl>     <dbl>
 1     1 Bulba… Grass    Poison     318    45     49      49        65        65
 2     2 Ivysa… Grass    Poison     405    60     62      63        80        80
 3     3 Venus… Grass    Poison     525    80     82      83       100       100
 4     3 Venus… Grass    Poison     625    80    100     123       122       120
 5     4 Charm… Fire     <NA>       309    39     52      43        60        50
 6     5 Charm… Fire     <NA>       405    58     64      58        80        65
 7     6 Chari… Fire     Flying     534    78     84      78       109        85
 8     6 Chari… Fire     Dragon     634    78    130     111       130        85
 9     6 Chari… Fire     Flying     634    78    104      78       159       115
10     7 Squir… Water    <NA>       314    44     48      65        50        64
# ℹ 790 more rows
# ℹ 3 more variables: Speed <dbl>, Generation <dbl>, Legendary <lgl>

Nota como los nombres de algunas variables de nuestra tabla de datos tienen espacios y caracteres especiales como el gato #. Aunque es posible usar espacios y caracteres especiales para nombrar columnas es una mala práctica y hace más difícil escribir el código. Lo más recomendable es seguir las mismas reglas que usamos para nombrar variables al momento de nombrar columnas de un conjunto de datos. Por ejemplo, podemos renombrar nuestras columnas Type 1 y Type 2 para quitarles el espacio y la mayúscula (también nota como podemos renombrar varias columnas al mismo tiempo con la función rename):

pokemon <- rename(
  pokemon,
  tipo_1 = "Type 1",
  tipo_2 = "Type 2"
)
pokemon

# A tibble: 800 × 13
     `#` nombre     tipo_1 tipo_2 Total    HP Attack Defense `Sp. Atk` `Sp. Def`
   <dbl> <chr>      <chr>  <chr>  <dbl> <dbl>  <dbl>   <dbl>     <dbl>     <dbl>
 1     1 Bulbasaur  Grass  Poison   318    45     49      49        65        65
 2     2 Ivysaur    Grass  Poison   405    60     62      63        80        80
 3     3 Venusaur   Grass  Poison   525    80     82      83       100       100
 4     3 VenusaurM… Grass  Poison   625    80    100     123       122       120
 5     4 Charmander Fire   <NA>     309    39     52      43        60        50
 6     5 Charmeleon Fire   <NA>     405    58     64      58        80        65
 7     6 Charizard  Fire   Flying   534    78     84      78       109        85
 8     6 Charizard… Fire   Dragon   634    78    130     111       130        85
 9     6 Charizard… Fire   Flying   634    78    104      78       159       115
10     7 Squirtle   Water  <NA>     314    44     48      65        50        64
# ℹ 790 more rows
# ℹ 3 more variables: Speed <dbl>, Generation <dbl>, Legendary <lgl>

Podemos hacer esto manualmente para cada variable, pero hay una forma más rápida y fácil.

Renombrar automáticamente las columnas con nombres consistentes

Existe un paquete muy práctico que tiene una función que nos puede ayudar a renombrar consistentemente nuestras variables, este se llama janitor y la función en cuestión se llama clean_names:

# install.packages("janitor")

pokemon <- janitor::clean_names(pokemon)
pokemon

# A tibble: 800 × 13
   number nombre    tipo_1 tipo_2 total    hp attack defense sp_atk sp_def speed
    <dbl> <chr>     <chr>  <chr>  <dbl> <dbl>  <dbl>   <dbl>  <dbl>  <dbl> <dbl>
 1      1 Bulbasaur Grass  Poison   318    45     49      49     65     65    45
 2      2 Ivysaur   Grass  Poison   405    60     62      63     80     80    60
 3      3 Venusaur  Grass  Poison   525    80     82      83    100    100    80
 4      3 Venusaur… Grass  Poison   625    80    100     123    122    120    80
 5      4 Charmand… Fire   <NA>     309    39     52      43     60     50    65
 6      5 Charmele… Fire   <NA>     405    58     64      58     80     65    80
 7      6 Charizard Fire   Flying   534    78     84      78    109     85   100
 8      6 Charizar… Fire   Dragon   634    78    130     111    130     85   100
 9      6 Charizar… Fire   Flying   634    78    104      78    159    115   100
10      7 Squirtle  Water  <NA>     314    44     48      65     50     64    43
# ℹ 790 more rows
# ℹ 2 more variables: generation <dbl>, legendary <lgl>
…
