10 - Seleccionar, filtrar y ordenar – Cibernética para la sustentabilidad
…
Rows: 800 Columns: 13
── Column specification ────────────────────────────────────────────────────────
Delimiter: ","
chr (3): Name, Type 1, Type 2
dbl (9): #, Total, HP, Attack, Defense, Sp. Atk, Sp. Def, Speed, Generation
lgl (1): Legendary

ℹ Use `spec()` to retrieve the full column specification for this data.
ℹ Specify the column types or set `show_col_types = FALSE` to quiet this message.

# Limpiar los nombres de columnas
pokemon <- janitor::clean_names(pokemon)
pokemon

# A tibble: 800 × 13
   number name      type_1 type_2 total    hp attack defense sp_atk sp_def speed
    <dbl> <chr>     <chr>  <chr>  <dbl> <dbl>  <dbl>   <dbl>  <dbl>  <dbl> <dbl>
 1      1 Bulbasaur Grass  Poison   318    45     49      49     65     65    45
 2      2 Ivysaur   Grass  Poison   405    60     62      63     80     80    60
 3      3 Venusaur  Grass  Poison   525    80     82      83    100    100    80
 4      3 Venusaur… Grass  Poison   625    80    100     123    122    120    80
 5      4 Charmand… Fire   <NA>     309    39     52      43     60     50    65
 6      5 Charmele… Fire   <NA>     405    58     64      58     80     65    80
 7      6 Charizard Fire   Flying   534    78     84      78    109     85   100
 8      6 Charizar… Fire   Dragon   634    78    130     111    130     85   100
 9      6 Charizar… Fire   Flying   634    78    104      78    159    115   100
10      7 Squirtle  Water  <NA>     314    44     48      65     50     64    43
# ℹ 790 more rows
# ℹ 2 more variables: generation <dbl>, legendary <lgl>
…
Para reducir el número de columnas de nuestros datos y quedarnos solo con las variables que nos interesan podemos usar la función select.

Recordemos cuales son las columnas de nuestra tabla de datos:

names(pokemon)

 [1] "number"     "name"       "type_1"     "type_2"     "total"     
 [6] "hp"         "attack"     "defense"    "sp_atk"     "sp_def"    
[11] "speed"      "generation" "legendary" 

Si solo nos queremos quedar con las columnas name, type_1, type_2 y total usamos la función select:

select(pokemon, name, type_1, type_2, total)

# A tibble: 800 × 4
   name                      type_1 type_2 total
   <chr>                     <chr>  <chr>  <dbl>
 1 Bulbasaur                 Grass  Poison   318
 2 Ivysaur                   Grass  Poison   405
 3 Venusaur                  Grass  Poison   525
 4 VenusaurMega Venusaur     Grass  Poison   625
 5 Charmander                Fire   <NA>     309
 6 Charmeleon                Fire   <NA>     405
 7 Charizard                 Fire   Flying   534
 8 CharizardMega Charizard X Fire   Dragon   634
 9 CharizardMega Charizard Y Fire   Flying   634
10 Squirtle                  Water  <NA>     314
# ℹ 790 more rows
…
En la función filter podemos usar cualquier operador de comparación y operador lógico. Por ejemplo, podemos filtrar y quedarnos sólo con los pokemón que tienen tipo 1 Pasto o Agua:

filter(pokemon, type_1 == "Grass" | type_1 == "Water")

# A tibble: 182 × 13
   number name      type_1 type_2 total    hp attack defense sp_atk sp_def speed
    <dbl> <chr>     <chr>  <chr>  <dbl> <dbl>  <dbl>   <dbl>  <dbl>  <dbl> <dbl>
 1      1 Bulbasaur Grass  Poison   318    45     49      49     65     65    45
 2      2 Ivysaur   Grass  Poison   405    60     62      63     80     80    60
 3      3 Venusaur  Grass  Poison   525    80     82      83    100    100    80
 4      3 Venusaur… Grass  Poison   625    80    100     123    122    120    80
 5      7 Squirtle  Water  <NA>     314    44     48      65     50     64    43
 6      8 Wartortle Water  <NA>     405    59     63      80     65     80    58
 7      9 Blastoise Water  <NA>     530    79     83     100     85    105    78
 8      9 Blastois… Water  <NA>     630    79    103     120    135    115    78
 9     43 Oddish    Grass  Poison   320    45     50      55     75     65    30
10     44 Gloom     Grass  Poison   395    60     65      70     85     75    40
# ℹ 172 more rows
# ℹ 2 more variables: generation <dbl>, legendary <lgl>
…
# A tibble: 2 × 13
  number name       type_1 type_2 total    hp attack defense sp_atk sp_def speed
   <dbl> <chr>      <chr>  <chr>  <dbl> <dbl>  <dbl>   <dbl>  <dbl>  <dbl> <dbl>
1    150 MewtwoMeg… Psych… Fight…   780   106    190     100    154    100   130
2    150 MewtwoMeg… Psych… <NA>     780   106    150      70    194    120   140
# ℹ 2 more variables: generation <dbl>, legendary <lgl>

Ordenar las filas

Algo muy útil para explorar los datos en una tabla es ordenar las filas de acuerdo a un criterio. Por ejemplo, podemos ordenar los pokemón de acuerdo a su poder total para conocer cuales son los pokemón más débiles. Para eso usamos la función arrange, la cual nos ordena los datos de menor a mayor con base en los valores de una columna:

arrange(pokemon, total)

# A tibble: 800 × 13
   number name      type_1 type_2 total    hp attack defense sp_atk sp_def speed
    <dbl> <chr>     <chr>  <chr>  <dbl> <dbl>  <dbl>   <dbl>  <dbl>  <dbl> <dbl>
 1    191 Sunkern   Grass  <NA>     180    30     30      30     30     30    30
 2    298 Azurill   Normal Fairy    190    50     20      40     20     40    20
 3    401 Kricketot Bug    <NA>     194    37     25      41     25     41    25
 4     10 Caterpie  Bug    <NA>     195    45     30      35     20     20    45
 5     13 Weedle    Bug    Poison   195    40     35      30     20     20    50
 6    265 Wurmple   Bug    <NA>     195    45     45      35     20     30    20
 7    280 Ralts     Psych… Fairy    198    28     25      25     45     35    40
 8    129 Magikarp  Water  <NA>     200    20     10      55     15     20    80
 9    349 Feebas    Water  <NA>     200    20     15      20     10     55    80
10    664 Scatterb… Bug    <NA>     200    38     35      40     27     25    35
# ℹ 790 more rows
# ℹ 2 more variables: generation <dbl>, legendary <lgl>

Si deseamos ordenarlos de mayor a menor podemos usar la función desc en el nombre de la columna que usamos como criterio:

arrange(pokemon, desc(total))

# A tibble: 800 × 13
   number name      type_1 type_2 total    hp attack defense sp_atk sp_def speed
    <dbl> <chr>     <chr>  <chr>  <dbl> <dbl>  <dbl>   <dbl>  <dbl>  <dbl> <dbl>
 1    150 MewtwoMe… Psych… Fight…   780   106    190     100    154    100   130
 2    150 MewtwoMe… Psych… <NA>     780   106    150      70    194    120   140
 3    384 Rayquaza… Dragon Flying   780   105    180     100    180    100   115
 4    382 KyogrePr… Water  <NA>     770   100    150      90    180    160    90
 5    383 GroudonP… Ground Fire     770   100    180     160    150     90    90
 6    493 Arceus    Normal <NA>     720   120    120     120    120    120   120
 7    248 Tyranita… Rock   Dark     700   100    164     150     95    120    71
 8    373 Salamenc… Dragon Flying   700    95    145     130    120     90   120
 9    376 Metagros… Steel  Psych…   700    80    145     150    105    110   110
10    380 LatiasMe… Dragon Psych…   700    80    100     120    140    150   110
# ℹ 790 more rows
# ℹ 2 more variables: generation <dbl>, legendary <lgl>

Podemos aplicar más de un criterio para ordenar cuando hay empates. Por ejemplo, podemos ordenar a los pokemón desde los más poderosos a los menos poderosos y cuando hay empates poner primero a los más rápidos:

arrange(pokemon, desc(total), desc(speed))

# A tibble: 800 × 13
   number name      type_1 type_2 total    hp attack defense sp_atk sp_def speed
    <dbl> <chr>     <chr>  <chr>  <dbl> <dbl>  <dbl>   <dbl>  <dbl>  <dbl> <dbl>
 1    150 MewtwoMe… Psych… <NA>     780   106    150      70    194    120   140
 2    150 MewtwoMe… Psych… Fight…   780   106    190     100    154    100   130
 3    384 Rayquaza… Dragon Flying   780   105    180     100    180    100   115
 4    382 KyogrePr… Water  <NA>     770   100    150      90    180    160    90
 5    383 GroudonP… Ground Fire     770   100    180     160    150     90    90
 6    493 Arceus    Normal <NA>     720   120    120     120    120    120   120
 7    373 Salamenc… Dragon Flying   700    95    145     130    120     90   120
 8    376 Metagros… Steel  Psych…   700    80    145     150    105    110   110
 9    380 LatiasMe… Dragon Psych…   700    80    100     120    140    150   110
10    381 LatiosMe… Dragon Psych…   700    80    130     100    160    120   110
# ℹ 790 more rows
# ℹ 2 more variables: generation <dbl>, legendary <lgl>

Filtrar y ordenar

Podemos combinar los filtros y ordenamientos de los datos. Por ejemplo, podemos ordenar de más poderoso a menos poderoso sólamente a los pokemón de tipo eléctrico:

pokemon_electricos <- filter(pokemon, type_1 == "Electric" | type_2 == "Electric")

arrange(pokemon_electricos, desc(total))

# A tibble: 50 × 13
   number name      type_1 type_2 total    hp attack defense sp_atk sp_def speed
    <dbl> <chr>     <chr>  <chr>  <dbl> <dbl>  <dbl>   <dbl>  <dbl>  <dbl> <dbl>
 1    644 Zekrom    Dragon Elect…   680   100    150     120    120    100    90
 2    181 Ampharos… Elect… Dragon   610    90     95     105    165    110    45
 3    145 Zapdos    Elect… Flying   580    90     90      85    125     90   100
 4    243 Raikou    Elect… <NA>     580    90     85      75    115    100   115
 5    642 Thunduru… Elect… Flying   580    79    115      70    125     80   111
 6    642 Thunduru… Elect… Flying   580    79    105      70    145     80   101
 7    310 Manectri… Elect… <NA>     575    70     75      80    135     80   135
 8    466 Electivi… Elect… <NA>     540    75    123      67     95     85    95
 9    462 Magnezone Elect… Steel    535    70     70     115    130     90    60
10    135 Jolteon   Elect… <NA>     525    65     65      60    110     95   130
# ℹ 40 more rows
# ℹ 2 more variables: generation <dbl>, legendary <lgl>

Nota como esto mismo también lo podemos hacer en una sola línea metiendo una función dentro de otra sin hacer objetos intermedios:

arrange(filter(pokemon, type_1 == "Electric" | type_2 == "Electric"), desc(total))

# A tibble: 50 × 13
   number name      type_1 type_2 total    hp attack defense sp_atk sp_def speed
    <dbl> <chr>     <chr>  <chr>  <dbl> <dbl>  <dbl>   <dbl>  <dbl>  <dbl> <dbl>
 1    644 Zekrom    Dragon Elect…   680   100    150     120    120    100    90
 2    181 Ampharos… Elect… Dragon   610    90     95     105    165    110    45
 3    145 Zapdos    Elect… Flying   580    90     90      85    125     90   100
 4    243 Raikou    Elect… <NA>     580    90     85      75    115    100   115
 5    642 Thunduru… Elect… Flying   580    79    115      70    125     80   111
 6    642 Thunduru… Elect… Flying   580    79    105      70    145     80   101
 7    310 Manectri… Elect… <NA>     575    70     75      80    135     80   135
 8    466 Electivi… Elect… <NA>     540    75    123      67     95     85    95
 9    462 Magnezone Elect… Steel    535    70     70     115    130     90    60
10    135 Jolteon   Elect… <NA>     525    65     65      60    110     95   130
# ℹ 40 more rows
# ℹ 2 more variables: generation <dbl>, legendary <lgl>
…
Rows: 28 Columns: 6
── Column specification ────────────────────────────────────────────────────────
Delimiter: ","
chr (2): movie, Director
dbl (4): year_released, Length_min, Rotten tomatoes rating, total_sales_mill...

ℹ Use `spec()` to retrieve the full column specification for this data.
ℹ Specify the column types or set `show_col_types = FALSE` to quiet this message.

pixar <- rename(pixar, year = year_released)
pixar <- janitor::clean_names(pixar)
pixar

# A tibble: 28 × 6
   movie    year length_min director rotten_tomatoes_rating total_sales_millions
   <chr>   <dbl>      <dbl> <chr>                     <dbl>                <dbl>
 1 Toy St…  1995         81 John La…                    100                 394.
 2 A Bug'…  1998         95 John La…                     92                 363.
 3 Toy St…  1999         92 John La…                    100                 511.
 4 Monste…  2001         92 Pete Do…                     96                 577.
 5 Findin…  2003        100 Andrew …                     99                 942.
 6 The In…  2004        115 Brad Bi…                     97                 632.
 7 Cars     2006        117 John La…                     75                 462 
 8 Ratato…  2007        111 Brad Bi…                     96                 624.
 9 WALL-E   2008         98 Andrew …                     95                 532.
10 Up       2009         96 Bob Pet…                     98                 735.
# ℹ 18 more rows
…
